<?xml version="1.0" encoding="UTF-8" standalone="no"?>
<!-- Created with Inkscape (http://www.inkscape.org/) -->

<svg
   xmlns:dc="http://purl.org/dc/elements/1.1/"
   xmlns:cc="http://creativecommons.org/ns#"
   xmlns:rdf="http://www.w3.org/1999/02/22-rdf-syntax-ns#"
   xmlns:svg="http://www.w3.org/2000/svg"
   xmlns="http://www.w3.org/2000/svg"
   xmlns:sodipodi="http://sodipodi.sourceforge.net/DTD/sodipodi-0.dtd"
   xmlns:inkscape="http://www.inkscape.org/namespaces/inkscape"
   width="21mm"
   height="29.700001mm"
   viewBox="0 0 21 29.700001"
   version="1.1"
   id="svg823"
   inkscape:version="0.92.4 (5da689c313, 2019-01-14)"
   sodipodi:docname="icon.svg">
  <defs
     id="defs817" />
  <sodipodi:namedview
     id="base"
     pagecolor="#ffffff"
     bordercolor="#666666"
     borderopacity="1.0"
     inkscape:pageopacity="0.0"
     inkscape:pageshadow="2"
     inkscape:zoom="2.8"
     inkscape:cx="81.91336"
     inkscape:cy="38.715156"
     inkscape:document-units="mm"
     inkscape:current-layer="layer1"
     showgrid="false"
     inkscape:window-width="1920"
     inkscape:window-height="1027"
     inkscape:window-x="-8"
     inkscape:window-y="-8"
     inkscape:window-maximized="1" />
  <metadata
     id="metadata820">
    <rdf:RDF>
      <cc:Work
         rdf:about="">
        <dc:format>image/svg+xml</dc:format>
        <dc:type
           rdf:resource="http://purl.org/dc/dcmitype/StillImage" />
        <dc:title></dc:title>
      </cc:Work>
    </rdf:RDF>
  </metadata>
  <g
     inkscape:label="Ebene 1"
     inkscape:groupmode="layer"
     id="layer1"
     transform="translate(0,-267.3)">
    <g
       id="g1508"
       transform="matrix(1.0089887,0,0,1.0089887,-33.372284,218.39389)"
       style="stroke-width:0.99109137">
      <path
         id="rect1401"
         d="m 38.718461,48.470425 -5.643478,5.622396 V 77.905839 H 53.887901 V 48.470425 Z"
         style="opacity:1;fill:#2b579a;fill-opacity:1;fill-rule:nonzero;stroke:none;stroke-width:0.26222625;stroke-linecap:round;stroke-linejoin:round;stroke-miterlimit:4;stroke-dasharray:none;stroke-opacity:1"
         inkscape:connector-curvature="0" />
      <path
         inkscape:connector-curvature="0"
         d="m 43.38778,61.635384 a 1.5409551,1.5409551 0 0 0 -0.818359,0.283204 l -6.585938,4.527343 -0.0059,0.0039 a 1.5409551,1.5409551 0 0 0 -0.08789,0.06641 1.5409551,1.5409551 0 0 0 -0.03516,0.02734 1.5409551,1.5409551 0 0 0 -0.002,0.002 1.5409551,1.5409551 0 0 0 -0.109375,0.103515 1.5409551,1.5409551 0 0 0 -0.101563,0.115235 1.5409551,1.5409551 0 0 0 -0.05273,0.07422 1.5409551,1.5409551 0 0 0 -0.03711,0.05078 1.5409551,1.5409551 0 0 0 -0.002,0.0039 1.5409551,1.5409551 0 0 0 -0.07422,0.132812 1.5409551,1.5409551 0 0 0 -0.002,0.002 1.5409551,1.5409551 0 0 0 -0.06055,0.136719 1.5409551,1.5409551 0 0 0 -0.01758,0.05273 1.5409551,1.5409551 0 0 0 -0.03125,0.09375 1.5409551,1.5409551 0 0 0 0,0.0039 1.5409551,1.5409551 0 0 0 -0.0332,0.146484 1.5409551,1.5409551 0 0 0 0,0.0039 1.5409551,1.5409551 0 0 0 -0.01758,0.148438 1.5409551,1.5409551 0 0 0 0,0.0039 1.5409551,1.5409551 0 0 0 0.0078,0.28125 1.5409551,1.5409551 0 0 0 0.002,0.02344 1.5409551,1.5409551 0 0 0 0.0098,0.05859 1.5409551,1.5409551 0 0 0 0.01953,0.0957 1.5409551,1.5409551 0 0 0 0.04102,0.144531 1.5409551,1.5409551 0 0 0 0.002,0.0039 1.5409551,1.5409551 0 0 0 0.126953,0.275391 1.5409551,1.5409551 0 0 0 0.02734,0.04297 1.5409551,1.5409551 0 0 0 0.05664,0.08594 1.5409551,1.5409551 0 0 0 0.0039,0.0039 1.5409551,1.5409551 0 0 0 0.09375,0.115235 1.5409551,1.5409551 0 0 0 0.002,0.0039 1.5409551,1.5409551 0 0 0 0.107422,0.105469 1.5409551,1.5409551 0 0 0 0.117188,0.09766 1.5409551,1.5409551 0 0 0 0.0039,0.0039 1.5409551,1.5409551 0 0 0 0.04297,0.0293 l 6.591797,4.53125 a 1.5409551,1.5409551 0 1 0 1.746093,-2.539062 l -2.503906,-1.720704 h 8.646484 a 1.5409551,1.5409551 0 0 0 1.560547,-1.591796 1.5409551,1.5409551 0 0 0 -1.568359,-1.556641 l -8.601563,0.04102 2.466797,-1.695312 a 1.5409551,1.5409551 0 0 0 -0.927734,-2.822266 z m 0.0625,-9.064453 a 1.5409551,1.5409551 0 0 0 -0.880859,2.822266 l 2.46875,1.697265 -8.603516,-0.04297 a 1.5409551,1.5409551 0 0 0 -1.56836,1.583984 1.5409551,1.5409551 0 0 0 1.560547,1.564453 h 8.648438 l -2.505859,1.722657 a 1.5409551,1.5409551 0 1 0 1.746093,2.539062 l 6.591797,-4.53125 a 1.5409551,1.5409551 0 0 0 0.103516,-0.08008 1.5409551,1.5409551 0 0 0 0.01563,-0.01172 1.5409551,1.5409551 0 0 0 0.002,-0.002 1.5409551,1.5409551 0 0 0 0.111328,-0.103516 1.5409551,1.5409551 0 0 0 0.002,-0.002 1.5409551,1.5409551 0 0 0 0.09961,-0.113281 1.5409551,1.5409551 0 0 0 0.002,-0.0039 1.5409551,1.5409551 0 0 0 0.05273,-0.07422 1.5409551,1.5409551 0 0 0 0.03711,-0.05078 1.5409551,1.5409551 0 0 0 0.07422,-0.13086 1.5409551,1.5409551 0 0 0 0.002,-0.002 1.5409551,1.5409551 0 0 0 0.06055,-0.138672 1.5409551,1.5409551 0 0 0 0.002,-0.002 1.5409551,1.5409551 0 0 0 0.04687,-0.144531 1.5409551,1.5409551 0 0 0 0,-0.002 1.5409551,1.5409551 0 0 0 0.0332,-0.148438 1.5409551,1.5409551 0 0 0 0,-0.002 1.5409551,1.5409551 0 0 0 0.01953,-0.15039 1.5409551,1.5409551 0 0 0 0,-0.0039 1.5409551,1.5409551 0 0 0 0.002,-0.15039 1.5409551,1.5409551 0 0 0 0,-0.0039 1.5409551,1.5409551 0 0 0 -0.01172,-0.148438 1.5409551,1.5409551 0 0 0 0,-0.0039 1.5409551,1.5409551 0 0 0 -0.02734,-0.148438 1.5409551,1.5409551 0 0 0 0,-0.0039 1.5409551,1.5409551 0 0 0 -0.04297,-0.144531 1.5409551,1.5409551 0 0 0 0,-0.002 1.5409551,1.5409551 0 0 0 -0.05664,-0.140625 1.5409551,1.5409551 0 0 0 -0.002,-0.0039 1.5409551,1.5409551 0 0 0 -0.06836,-0.132812 1.5409551,1.5409551 0 0 0 -0.002,-0.0039 1.5409551,1.5409551 0 0 0 -0.08398,-0.125 1.5409551,1.5409551 0 0 0 -0.002,-0.002 1.5409551,1.5409551 0 0 0 -0.02344,-0.0293 1.5409551,1.5409551 0 0 0 -0.07227,-0.0918 1.5409551,1.5409551 0 0 0 -0.107422,-0.107422 1.5409551,1.5409551 0 0 0 -0.002,-0.002 1.5409551,1.5409551 0 0 0 -0.115235,-0.0957 1.5409551,1.5409551 0 0 0 -0.0039,-0.002 1.5409551,1.5409551 0 0 0 -0.04492,-0.0332 l -6.591797,-4.53125 a 1.5409551,1.5409551 0 0 0 -0.865234,-0.283203 z"
         style="color:#000000;font-style:normal;font-variant:normal;font-weight:normal;font-stretch:normal;font-size:medium;line-height:normal;font-family:sans-serif;font-variant-ligatures:normal;font-variant-position:normal;font-variant-caps:normal;font-variant-numeric:normal;font-variant-alternates:normal;font-feature-settings:normal;text-indent:0;text-align:start;text-decoration:none;text-decoration-line:none;text-decoration-style:solid;text-decoration-color:#000000;letter-spacing:normal;word-spacing:normal;text-transform:none;writing-mode:lr-tb;direction:ltr;text-orientation:mixed;dominant-baseline:auto;baseline-shift:baseline;text-anchor:start;white-space:normal;shape-padding:0;clip-rule:nonzero;display:inline;overflow:visible;visibility:visible;opacity:1;isolation:auto;mix-blend-mode:normal;color-interpolation:sRGB;color-interpolation-filters:linearRGB;solid-color:#000000;solid-opacity:1;vector-effect:none;fill:#ffffff;fill-opacity:1;fill-rule:evenodd;stroke:none;stroke-width:3.05414939;stroke-linecap:round;stroke-linejoin:round;stroke-miterlimit:4;stroke-dasharray:none;stroke-dashoffset:0;stroke-opacity:1;color-rendering:auto;image-rendering:auto;shape-rendering:auto;text-rendering:auto;enable-background:accumulate"
         id="path1368-6-5" />
    </g>
  </g>
</svg>
