<?xml version="1.0" encoding="UTF-8" standalone="no"?>
<svg
   xmlns:dc="http://purl.org/dc/elements/1.1/"
   xmlns:cc="http://creativecommons.org/ns#"
   xmlns:rdf="http://www.w3.org/1999/02/22-rdf-syntax-ns#"
   xmlns:svg="http://www.w3.org/2000/svg"
   xmlns="http://www.w3.org/2000/svg"
   xmlns:sodipodi="http://sodipodi.sourceforge.net/DTD/sodipodi-0.dtd"
   xmlns:inkscape="http://www.inkscape.org/namespaces/inkscape"
   viewBox="0 0 512 512"
   version="1.1"
   id="svg4"
   sodipodi:docname="industry.svg"
   inkscape:export-filename="C:\Users\Florian\Google Drive\source\VisualStudio\repos\WordZuBundesanzeiger\WordZuBundesanzeiger\res\industry.png"
   inkscape:export-xdpi="24.126268"
   inkscape:export-ydpi="24.126268"
   inkscape:version="0.92.4 (5da689c313, 2019-01-14)">
  <metadata
     id="metadata10">
    <rdf:RDF>
      <cc:Work
         rdf:about="">
        <dc:format>image/svg+xml</dc:format>
        <dc:type
           rdf:resource="http://purl.org/dc/dcmitype/StillImage" />
      </cc:Work>
    </rdf:RDF>
  </metadata>
  <defs
     id="defs8" />
  <sodipodi:namedview
     pagecolor="#ffffff"
     bordercolor="#666666"
     borderopacity="1"
     objecttolerance="10"
     gridtolerance="10"
     guidetolerance="10"
     inkscape:pageopacity="0"
     inkscape:pageshadow="2"
     inkscape:window-width="2880"
     inkscape:window-height="1541"
     id="namedview6"
     showgrid="false"
     inkscape:zoom="1.84375"
     inkscape:cx="325.05283"
     inkscape:cy="204.47297"
     inkscape:window-x="-11"
     inkscape:window-y="-11"
     inkscape:window-maximized="1"
     inkscape:current-layer="svg4" />
  <path
     d="m 450.00251,174.49895 -123.17122,78.23904 v -60.34431 c 0,-16.71753 -18.53213,-26.86594 -32.65767,-17.89473 L 171.00241,252.73799 V 79.244556 c 0,-11.714467 -9.51353,-21.210654 -21.2494,-21.210654 H 50.589179 c -11.735861,0 -21.249391,9.496187 -21.249391,21.210654 V 432.75547 c 0,11.71447 9.51353,21.21066 21.249391,21.21066 H 461.41078 c 11.73586,0 21.24938,-9.49619 21.24938,-21.21066 V 192.39368 c 0,-16.71842 -18.53213,-26.86594 -32.65765,-17.89473 z"
     id="path2"
     style="fill:none;stroke:#000000;stroke-width:56;stroke-miterlimit:4;stroke-dasharray:none;stroke-opacity:1;stroke-linejoin:round"
     inkscape:connector-curvature="0" />
</svg>
